{
	"apikey": null,
	"coordinates": {
		"latitude": 59.38080,
		"longitude": 13.50239
	},
	"settings": {
		"language": "en",
		"temperature": 0,
		"windspeed": 0,
		"pressure": 0,
		"dateformat": 1,
		"timeformat": 1,
		"daysuffix": 1,
		"distance": 0,
		"precipitation": 0,
		"decimal": 1,
		"split_thousands": 1,
		"theme": 1
	}
}