<?xml version="1.0" encoding="UTF-8" standalone="no"?>
<!-- Created with Inkscape (http://www.inkscape.org/) -->

<svg
   width="48"
   height="48"
   viewBox="0 0 48 48.000002"
   version="1.1"
   id="svg5"
   inkscape:version="1.2 (dc2aedaf03, 2022-05-15)"
   xml:space="preserve"
   sodipodi:docname="telegram.svg"
   xmlns:inkscape="http://www.inkscape.org/namespaces/inkscape"
   xmlns:sodipodi="http://sodipodi.sourceforge.net/DTD/sodipodi-0.dtd"
   xmlns="http://www.w3.org/2000/svg"
   xmlns:svg="http://www.w3.org/2000/svg"><sodipodi:namedview
     id="namedview7"
     pagecolor="#505050"
     bordercolor="#eeeeee"
     borderopacity="1"
     inkscape:pageshadow="0"
     inkscape:pageopacity="0"
     inkscape:pagecheckerboard="0"
     inkscape:document-units="px"
     showgrid="false"
     units="px"
     inkscape:zoom="6.8737762"
     inkscape:cx="17.603133"
     inkscape:cy="17.166692"
     inkscape:window-width="1916"
     inkscape:window-height="1050"
     inkscape:window-x="0"
     inkscape:window-y="26"
     inkscape:window-maximized="1"
     inkscape:current-layer="layer1"
     inkscape:showpageshadow="0"
     inkscape:deskcolor="#505050" /><defs
     id="defs2"><inkscape:path-effect
       effect="fillet_chamfer"
       id="path-effect423"
       is_visible="true"
       lpeversion="1"
       nodesatellites_param="F,0,0,1,0,3,0,1 @ F,0,0,1,0,3,0,1 @ F,0,0,1,0,3,0,1 @ F,0,0,1,0,3,0,1 @ F,0,0,1,0,3,0,1 @ F,0,0,1,0,3,0,1"
       unit="px"
       method="auto"
       mode="F"
       radius="3"
       chamfer_steps="1"
       flexible="false"
       use_knot_distance="true"
       apply_no_radius="true"
       apply_with_radius="true"
       only_selected="false"
       hide_knots="false" /><style
       id="style368">.cls-1{fill:none;stroke:#000;stroke-linecap:round;stroke-linejoin:round;}</style></defs><g
     inkscape:label="Layer 1"
     inkscape:groupmode="layer"
     id="layer1"><path
       class="cls-1"
       d="M 33.094139,40.113071 22.962544,34.073897 a 2.7750435,2.7750435 78.028774 0 1 -0.84509,-3.985679 l 3.908464,-5.528403 a 0.83360752,0.83360752 50.788473 0 0 -1.015513,-1.244631 l -9.159711,4.017506 a 6.5537601,6.5537601 0.91350159 0 1 -5.454895,-0.08698 L 6.7129496,25.488329 a 1.3848878,1.3848878 90.730129 0 1 0.032045,-2.514553 L 41.254816,7.5734202 a 1.4853878,1.4853878 39.609341 0 1 2.051067,1.6973541 L 36.359589,38.72919 a 2.198481,2.198481 157.03301 0 1 -3.26545,1.383881 z"
       id="path372"
       style="stroke:#ffffff;stroke-width:4;stroke-dasharray:none"
       sodipodi:nodetypes="ccccccc"
       inkscape:path-effect="#path-effect423"
       inkscape:original-d="M 35.671071,41.649112 20.385612,32.537856 27.75776,22.110177 13.103339,28.537697 4.0054092,24.196344 43.994401,6.3508525 Z" /></g></svg>
