<?xml version="1.0" encoding="UTF-8" standalone="no"?>
<!-- Created with Inkscape (http://www.inkscape.org/) -->

<svg
   width="48"
   height="48"
   viewBox="0 0 48 48.000002"
   version="1.1"
   id="svg5"
   inkscape:version="1.2 (dc2aedaf03, 2022-05-15)"
   xml:space="preserve"
   sodipodi:docname="distance.svg"
   xmlns:inkscape="http://www.inkscape.org/namespaces/inkscape"
   xmlns:sodipodi="http://sodipodi.sourceforge.net/DTD/sodipodi-0.dtd"
   xmlns="http://www.w3.org/2000/svg"
   xmlns:svg="http://www.w3.org/2000/svg"><sodipodi:namedview
     id="namedview7"
     pagecolor="#505050"
     bordercolor="#eeeeee"
     borderopacity="1"
     inkscape:pageshadow="0"
     inkscape:pageopacity="0"
     inkscape:pagecheckerboard="0"
     inkscape:document-units="px"
     showgrid="false"
     units="px"
     inkscape:zoom="6.8737762"
     inkscape:cx="0.80014243"
     inkscape:cy="15.711888"
     inkscape:window-width="1916"
     inkscape:window-height="1050"
     inkscape:window-x="0"
     inkscape:window-y="26"
     inkscape:window-maximized="1"
     inkscape:current-layer="layer1"
     inkscape:showpageshadow="0"
     inkscape:deskcolor="#505050" /><defs
     id="defs2"><style
       id="style2942">.cls-1{fill:none;stroke:#000;stroke-linecap:round;stroke-linejoin:round;}</style></defs><g
     inkscape:label="Layer 1"
     inkscape:groupmode="layer"
     id="layer1"><g
       id="g3024"
       transform="translate(-0.74998717,-1.0296747)"><path
         id="path1676"
         style="fill:none;stroke:#ffffff;stroke-width:4;stroke-linecap:round;stroke-linejoin:round;stroke-dasharray:4, 8;stroke-dashoffset:92;stop-color:#000000"
         d="M 30.513014,10.073757 H 15.443016 c -4.82641,0 -8.7389874,3.911987 -8.7389871,8.737663 4e-7,4.825679 3.9125771,8.737663 8.7389871,8.737663 h 18.678741 c 4.826409,0 8.738987,3.911986 8.738987,8.737665 0,4.825678 -3.912578,8.737662 -8.738987,8.737662 H 18.814675"
         sodipodi:nodetypes="csccscsc" /><path
         style="fill:#ffffff;stroke:#ffffff;stroke-width:4;stroke-linecap:round;stroke-linejoin:round;stroke-dasharray:none"
         d="m 39.330988,5.0295249 c -1.81645,0 -3.288975,1.563763 -3.288975,3.4927624 v 0 0.235679 0.018854 c 0.133157,1.9137127 1.628953,5.4375177 3.288975,7.4290047 1.733258,-2.078688 3.288973,-5.637844 3.288973,-7.6835381 v 0 c 0,-1.9289989 -1.472523,-3.4927616 -3.288973,-3.492762 z"
         id="path2946"
         sodipodi:nodetypes="ssccccsss" /><path
         style="fill:#ffffff;stroke:#ffffff;stroke-width:4;stroke-linecap:round;stroke-linejoin:round;stroke-dasharray:none"
         d="m 10.075929,33.848225 c -1.8164497,0 -3.2889737,1.563763 -3.2889737,3.492763 v 0 0.235679 0.01886 c 0.1331567,1.913713 1.6289528,5.437517 3.2889737,7.429004 1.73326,-2.078688 3.288974,-5.637844 3.288974,-7.683537 v 0 c 0,-1.929 -1.472522,-3.492762 -3.288974,-3.492763 z"
         id="path2959"
         sodipodi:nodetypes="ssccccsss" /></g></g></svg>
