<?xml version="1.0" encoding="UTF-8" standalone="no"?>
<!-- Created with Inkscape (http://www.inkscape.org/) -->

<svg
   width="48"
   height="48"
   viewBox="0 0 48 48.000002"
   version="1.1"
   id="svg5"
   xml:space="preserve"
   sodipodi:docname="download.svg"
   inkscape:export-filename="download.svg"
   inkscape:export-xdpi="96"
   inkscape:export-ydpi="96"
   xmlns:inkscape="http://www.inkscape.org/namespaces/inkscape"
   xmlns:sodipodi="http://sodipodi.sourceforge.net/DTD/sodipodi-0.dtd"
   xmlns="http://www.w3.org/2000/svg"
   xmlns:svg="http://www.w3.org/2000/svg"><sodipodi:namedview
     id="namedview9"
     pagecolor="#505050"
     bordercolor="#eeeeee"
     borderopacity="1"
     inkscape:showpageshadow="0"
     inkscape:pageopacity="0"
     inkscape:pagecheckerboard="0"
     inkscape:deskcolor="#505050"
     showgrid="false" /><defs
     id="defs2" /><g
     id="layer1"
     style="stroke:#34e152;stroke-opacity:1"><g
       id="g2429"
       style="stroke:#34e152;stroke-width:4.07781;stroke-dasharray:none;stroke-opacity:1"
       transform="matrix(0.98083219,0,0,0.98100319,0.52109064,2.4695283)"><path
         style="fill:none;stroke:#34e152;stroke-width:4.07781;stroke-linecap:round;stroke-linejoin:round;stroke-dasharray:none;stroke-opacity:1"
         d="M 23.936549,4.6171064 V 28.927801 l -7.401813,-8.54005"
         id="path2048" /><path
         style="fill:none;stroke:#34e152;stroke-width:4.07781;stroke-linecap:round;stroke-linejoin:round;stroke-dasharray:none;stroke-opacity:1"
         d="m 23.936549,28.927801 7.401813,-8.54005"
         id="path2413" /></g><path
       id="rect552"
       style="fill:none;stroke:#34e152;stroke-width:4;stroke-linecap:round;stroke-linejoin:round;stroke-dasharray:none;stroke-dashoffset:92;stroke-opacity:1;stop-color:#000000"
       d="m 39.765596,30.322127 v 4.974688 c 0,3.158773 -2.542539,5.701755 -5.700759,5.701755 H 13.93282 c -3.15822,0 -5.7007594,-2.542982 -5.7007594,-5.701755 v -4.974688" /></g></svg>
