<?xml version="1.0" encoding="UTF-8" standalone="no"?>
<!-- Created with Inkscape (http://www.inkscape.org/) -->

<svg
   width="48"
   height="48"
   viewBox="0 0 48 48.000002"
   version="1.1"
   id="svg5"
   inkscape:version="1.2 (dc2aedaf03, 2022-05-15)"
   xml:space="preserve"
   sodipodi:docname="map.svg"
   xmlns:inkscape="http://www.inkscape.org/namespaces/inkscape"
   xmlns:sodipodi="http://sodipodi.sourceforge.net/DTD/sodipodi-0.dtd"
   xmlns="http://www.w3.org/2000/svg"
   xmlns:svg="http://www.w3.org/2000/svg"><sodipodi:namedview
     id="namedview7"
     pagecolor="#505050"
     bordercolor="#eeeeee"
     borderopacity="1"
     inkscape:pageshadow="0"
     inkscape:pageopacity="0"
     inkscape:pagecheckerboard="0"
     inkscape:document-units="px"
     showgrid="false"
     units="px"
     inkscape:zoom="13.747552"
     inkscape:cx="20.039931"
     inkscape:cy="25.531817"
     inkscape:window-width="1916"
     inkscape:window-height="1050"
     inkscape:window-x="0"
     inkscape:window-y="26"
     inkscape:window-maximized="1"
     inkscape:current-layer="layer1"
     inkscape:showpageshadow="0"
     inkscape:deskcolor="#505050" /><defs
     id="defs2"><style
       id="style2652">.cls-1{fill:none;stroke:#000;stroke-linecap:round;stroke-linejoin:round;}</style></defs><g
     inkscape:label="Layer 1"
     inkscape:groupmode="layer"
     id="layer1"><path
       class="cls-1"
       d="M 17.835,5.5 6.275,9.45 a 1,1 0 0 0 -0.74,1 v 31 a 1,1 0 0 0 1,1 h 0.33 l 11,-4.26 12.3,4.31 11.56,-4 a 1,1 0 0 0 0.74,-1 v -31 a 1,1 0 0 0 -1,-1 l -0.33,0.07 -11,4.19 z"
       id="path2656"
       style="stroke:#ffffff;stroke-width:4;stroke-dasharray:none" /><line
       class="cls-1"
       x1="30.145"
       y1="9.8100004"
       x2="30.145"
       y2="42.5"
       id="line2658"
       style="stroke:#ffffff;stroke-width:4;stroke-dasharray:none" /><line
       class="cls-1"
       x1="17.875"
       y1="38.189999"
       x2="17.875"
       y2="5.5999999"
       id="line2660"
       style="stroke:#ffffff;stroke-width:4;stroke-dasharray:none" /></g></svg>
