<?xml version="1.0" encoding="UTF-8" standalone="no"?>
<!-- Created with Inkscape (http://www.inkscape.org/) -->

<svg
   width="48"
   height="48"
   viewBox="0 0 48 48.000002"
   version="1.1"
   id="svg5"
   inkscape:version="1.2 (dc2aedaf03, 2022-05-15)"
   xml:space="preserve"
   sodipodi:docname="precipitation.svg"
   xmlns:inkscape="http://www.inkscape.org/namespaces/inkscape"
   xmlns:sodipodi="http://sodipodi.sourceforge.net/DTD/sodipodi-0.dtd"
   xmlns="http://www.w3.org/2000/svg"
   xmlns:svg="http://www.w3.org/2000/svg"><sodipodi:namedview
     id="namedview7"
     pagecolor="#505050"
     bordercolor="#eeeeee"
     borderopacity="1"
     inkscape:pageshadow="0"
     inkscape:pageopacity="0"
     inkscape:pagecheckerboard="0"
     inkscape:document-units="px"
     showgrid="false"
     units="px"
     inkscape:zoom="13.747552"
     inkscape:cx="18.221425"
     inkscape:cy="14.766265"
     inkscape:window-width="1916"
     inkscape:window-height="1050"
     inkscape:window-x="0"
     inkscape:window-y="26"
     inkscape:window-maximized="1"
     inkscape:current-layer="layer1"
     inkscape:showpageshadow="0"
     inkscape:deskcolor="#505050" /><defs
     id="defs2" /><g
     inkscape:label="Layer 1"
     inkscape:groupmode="layer"
     id="layer1"><g
       id="g801"
       transform="translate(0.72119703,0.74866107)"><path
         id="path297"
         style="fill:none;stroke:#ffffff;stroke-width:4;stroke-linecap:round;stroke-linejoin:round;stroke-dasharray:none;stop-color:#000000"
         d="M 8.3246364,28.868016 C 5.2142106,26.906624 3.5108805,23.167566 4.2837775,19.388735 5.1452181,15.176998 8.816278,12.218639 13.039641,12.107817 c 0.547167,-2.9237009 2.22956,-5.5486034 4.80818,-7.1929639 3.843164,-2.450747 8.821105,-2.1775816 12.373064,0.6789746 3.214169,2.5848983 4.612868,6.7642073 3.676966,10.6688763 2.175992,-0.349111 4.420789,0.31689 6.094988,1.835694 2.059919,1.868722 2.918936,4.722661 2.23278,7.418036 -0.447792,1.759027 -1.505848,3.262664 -2.938123,4.277462"
         sodipodi:nodetypes="cscsscssc" /><path
         style="fill:none;stroke:#ffffff;stroke-width:4;stroke-linecap:round;stroke-linejoin:miter;stroke-dasharray:none;stroke-opacity:1"
         d="M 9.1744649,43.251326 16.542973,29.174432"
         id="path1074" /><path
         style="fill:none;stroke:#ffffff;stroke-width:4;stroke-linecap:round;stroke-linejoin:miter;stroke-dasharray:none;stroke-opacity:1"
         d="M 17.424589,43.251326 24.793097,29.174432"
         id="path1076" /><path
         style="fill:none;stroke:#ffffff;stroke-width:4;stroke-linecap:round;stroke-linejoin:miter;stroke-dasharray:none;stroke-opacity:1"
         d="M 25.674713,43.251326 33.043221,29.174432"
         id="path1078" /></g></g></svg>
