<?xml version="1.0" encoding="UTF-8" standalone="no"?>
<!-- Created with Inkscape (http://www.inkscape.org/) -->

<svg
   width="48"
   height="48"
   viewBox="0 0 48 48.000002"
   version="1.1"
   id="svg5"
   inkscape:version="1.2 (dc2aedaf03, 2022-05-15)"
   xml:space="preserve"
   sodipodi:docname="json_upload.svg"
   xmlns:inkscape="http://www.inkscape.org/namespaces/inkscape"
   xmlns:sodipodi="http://sodipodi.sourceforge.net/DTD/sodipodi-0.dtd"
   xmlns="http://www.w3.org/2000/svg"
   xmlns:svg="http://www.w3.org/2000/svg"><sodipodi:namedview
     id="namedview7"
     pagecolor="#505050"
     bordercolor="#eeeeee"
     borderopacity="1"
     inkscape:pageshadow="0"
     inkscape:pageopacity="0"
     inkscape:pagecheckerboard="0"
     inkscape:document-units="px"
     showgrid="false"
     units="px"
     inkscape:zoom="9.7209875"
     inkscape:cx="4.474854"
     inkscape:cy="22.734316"
     inkscape:window-width="1916"
     inkscape:window-height="1050"
     inkscape:window-x="0"
     inkscape:window-y="26"
     inkscape:window-maximized="1"
     inkscape:current-layer="layer1"
     inkscape:showpageshadow="0"
     inkscape:deskcolor="#505050" /><defs
     id="defs2"><style
       id="style369">.a{fill:none;stroke:#fff;stroke-linecap:round;stroke-linejoin:round;}</style></defs><g
     inkscape:label="Layer 1"
     inkscape:groupmode="layer"
     id="layer1"><path
       class="a"
       d="M 39.906489,15.281452 H 30.67018 A 2.0525132,2.0512821 0 0 1 28.617666,13.230169 V 3.9993999 H 10.145048 A 2.0525132,2.0512821 0 0 0 8.0925344,6.050682 V 41.948119 A 2.0525132,2.0512821 0 0 0 10.145048,43.9994 h 27.708927 a 2.0525132,2.0512821 0 0 0 2.052514,-2.051281 z"
       id="path373"
       style="stroke-width:4;stroke-dasharray:none;stroke:#ffffff;stroke-linejoin:round;stroke-linecap:round" /><path
       id="line375"
       style="fill:none;stroke:#ffffff;stroke-width:4;stroke-linecap:round;stroke-linejoin:round"
       class="a"
       d="M 28.617666,3.9993999 39.90649,15.281451" /><g
       id="g1413"
       transform="matrix(1,0,0,-1,0,54.297149)"><path
         style="fill:none;stroke:#ffffff;stroke-width:4;stroke-linecap:round;stroke-linejoin:round;stroke-dasharray:none;stroke-opacity:1"
         d="m 23.999512,19.399124 v 15.498901 l -5.855125,-6.85128"
         id="path2048"
         sodipodi:nodetypes="ccc" /><path
         style="fill:none;stroke:#ffffff;stroke-width:4;stroke-linecap:round;stroke-linejoin:round;stroke-dasharray:none;stroke-opacity:1"
         d="m 23.999512,34.898025 5.855123,-6.85128"
         id="path2413"
         sodipodi:nodetypes="cc" /></g></g></svg>
