<?xml version="1.0" encoding="UTF-8" standalone="no"?>
<!-- Created with Inkscape (http://www.inkscape.org/) -->

<svg
   width="48"
   height="48"
   viewBox="0 0 48 48.000002"
   version="1.1"
   id="svg5"
   inkscape:version="1.2 (dc2aedaf03, 2022-05-15)"
   xml:space="preserve"
   sodipodi:docname="wind_speed.svg"
   xmlns:inkscape="http://www.inkscape.org/namespaces/inkscape"
   xmlns:sodipodi="http://sodipodi.sourceforge.net/DTD/sodipodi-0.dtd"
   xmlns="http://www.w3.org/2000/svg"
   xmlns:svg="http://www.w3.org/2000/svg"><sodipodi:namedview
     id="namedview7"
     pagecolor="#505050"
     bordercolor="#eeeeee"
     borderopacity="1"
     inkscape:pageshadow="0"
     inkscape:pageopacity="0"
     inkscape:pagecheckerboard="0"
     inkscape:document-units="px"
     showgrid="false"
     units="px"
     inkscape:zoom="9.7209877"
     inkscape:cx="18.156591"
     inkscape:cy="7.509525"
     inkscape:window-width="1916"
     inkscape:window-height="1050"
     inkscape:window-x="0"
     inkscape:window-y="26"
     inkscape:window-maximized="1"
     inkscape:current-layer="layer1"
     inkscape:showpageshadow="0"
     inkscape:deskcolor="#505050" /><defs
     id="defs2" /><g
     inkscape:label="Layer 1"
     inkscape:groupmode="layer"
     id="layer1"><path
       id="path1284"
       style="fill:none;stroke:#ffffff;stroke-width:4;stroke-linecap:round;stroke-linejoin:round;stroke-dasharray:none;stop-color:#000000"
       d="m 30.335474,16.143471 c 0.669909,-2.730923 3.134453,-4.75699 6.072265,-4.75699 3.452886,0 6.252003,2.79879 6.252003,6.251273 0,3.452483 -2.799117,6.251273 -6.252003,6.251273 H 5.3402582"
       sodipodi:nodetypes="csscc" /><path
       id="path1750"
       style="fill:none;stroke:#ffffff;stroke-width:4;stroke-linecap:round;stroke-linejoin:round;stroke-dasharray:none;stop-color:#000000"
       d="m 19.410114,7.4468464 c 0.621795,-0.3704174 1.356641,-0.5844992 2.14395,-0.5844992 2.237072,0 4.050577,1.7284176 4.050577,3.8605278 0,2.13211 -1.813505,3.860527 -4.050577,3.860527 H 7.4894102"
       sodipodi:nodetypes="csscc" /><path
       id="path1754"
       style="fill:none;stroke:#ffffff;stroke-width:4;stroke-linecap:round;stroke-linejoin:round;stroke-dasharray:none;stop-color:#000000"
       d="m 19.767858,39.62428 c 0.830199,0.926981 2.056186,1.513373 3.423795,1.513373 2.500574,0 4.527689,-1.9604 4.527689,-4.378674 0,-2.418273 -2.027115,-4.378671 -4.527689,-4.378671 H 7.4894102"
       sodipodi:nodetypes="csscc" /></g></svg>
