<?xml version="1.0" encoding="UTF-8" standalone="no"?>
<!-- Created with Inkscape (http://www.inkscape.org/) -->

<svg
   width="48"
   height="48"
   viewBox="0 0 48 48.000002"
   version="1.1"
   id="svg5"
   inkscape:version="1.2 (dc2aedaf03, 2022-05-15)"
   xml:space="preserve"
   sodipodi:docname="settings.svg"
   xmlns:inkscape="http://www.inkscape.org/namespaces/inkscape"
   xmlns:sodipodi="http://sodipodi.sourceforge.net/DTD/sodipodi-0.dtd"
   xmlns="http://www.w3.org/2000/svg"
   xmlns:svg="http://www.w3.org/2000/svg"><sodipodi:namedview
     id="namedview7"
     pagecolor="#505050"
     bordercolor="#eeeeee"
     borderopacity="1"
     inkscape:pageshadow="0"
     inkscape:pageopacity="0"
     inkscape:pagecheckerboard="0"
     inkscape:document-units="px"
     showgrid="false"
     units="px"
     inkscape:zoom="11.313708"
     inkscape:cx="7.6455921"
     inkscape:cy="22.715805"
     inkscape:window-width="1916"
     inkscape:window-height="1050"
     inkscape:window-x="0"
     inkscape:window-y="26"
     inkscape:window-maximized="1"
     inkscape:current-layer="layer1"
     inkscape:showpageshadow="0"
     inkscape:deskcolor="#505050" /><defs
     id="defs2"><style
       id="style452">.cls-1{fill:none;stroke:#fff;stroke-linecap:round;stroke-linejoin:round;}</style></defs><g
     inkscape:label="Layer 1"
     inkscape:groupmode="layer"
     id="layer1"><path
       id="path456"
       style="stroke-width:1;stroke-dasharray:none;stroke:none;fill:#ffffff"
       d="M 19.900391 3.5195312 A 1 1 0 0 0 18.900391 4.3808594 L 18.130859 9.8105469 A 15.36 15.36 0 0 0 14.669922 11.810547 L 9.5390625 9.75 A 1 1 0 0 0 8.2890625 10.189453 L 4.1894531 17.300781 A 1 1 0 0 0 4.4394531 18.609375 L 8.7597656 22 A 16.66 16.66 0 0 0 8.6191406 24 A 16.52 16.52 0 0 0 8.7597656 26 L 4.4394531 29.390625 A 1 1 0 0 0 4.1894531 30.699219 L 8.2890625 37.810547 A 1 1 0 0 0 9.5390625 38.25 L 14.650391 36.189453 A 15.68 15.68 0 0 0 18.109375 38.189453 L 18.880859 43.619141 A 1 1 0 0 0 19.880859 44.480469 L 28.080078 44.480469 A 1 1 0 0 0 29.080078 43.619141 L 29.849609 38.189453 A 15.36 15.36 0 0 0 33.310547 36.189453 L 38.419922 38.25 A 1 1 0 0 0 39.669922 37.810547 L 43.769531 30.699219 A 1 1 0 0 0 43.519531 29.390625 L 39.230469 26 A 16.52 16.52 0 0 0 39.369141 24 A 16.52 16.52 0 0 0 39.230469 22 L 43.560547 18.609375 A 1 1 0 0 0 43.810547 17.300781 L 39.710938 10.189453 A 1 1 0 0 0 38.460938 9.75 L 33.349609 11.810547 A 15.68 15.68 0 0 0 29.890625 9.8105469 L 29.119141 4.3808594 A 1 1 0 0 0 28.119141 3.5195312 L 19.900391 3.5195312 z M 23.634766 16.828125 A 7.18 7.18 0 0 1 31.169922 24 A 7.17 7.17 0 0 1 24 31.179688 A 7.18 7.18 0 0 1 23.634766 16.828125 z " /></g></svg>
