<?xml version="1.0" encoding="UTF-8" standalone="no"?>
<!-- Created with Inkscape (http://www.inkscape.org/) -->

<svg
   width="48"
   height="48"
   viewBox="0 0 48 48.000002"
   version="1.1"
   id="svg5"
   inkscape:version="1.2 (dc2aedaf03, 2022-05-15)"
   sodipodi:docname="crosshair.svg"
   xmlns:inkscape="http://www.inkscape.org/namespaces/inkscape"
   xmlns:sodipodi="http://sodipodi.sourceforge.net/DTD/sodipodi-0.dtd"
   xmlns="http://www.w3.org/2000/svg"
   xmlns:svg="http://www.w3.org/2000/svg">
  <sodipodi:namedview
     id="namedview7"
     pagecolor="#505050"
     bordercolor="#eeeeee"
     borderopacity="1"
     inkscape:pageshadow="0"
     inkscape:pageopacity="0"
     inkscape:pagecheckerboard="0"
     inkscape:document-units="px"
     showgrid="false"
     units="px"
     inkscape:zoom="9.7209876"
     inkscape:cx="21.345568"
     inkscape:cy="17.899416"
     inkscape:window-width="1916"
     inkscape:window-height="1050"
     inkscape:window-x="0"
     inkscape:window-y="26"
     inkscape:window-maximized="1"
     inkscape:current-layer="layer1"
     inkscape:showpageshadow="0"
     inkscape:deskcolor="#505050" />
  <defs
     id="defs2" />
  <g
     inkscape:label="Layer 1"
     inkscape:groupmode="layer"
     id="layer1">
    <path
       id="path181"
       style="fill:none;stroke:#000;stroke-width:4;stroke-linecap:round;stroke-linejoin:round;stop-color:#000000"
       d="M 40,24 A 16,16 0 0 1 24,40 16,16 0 0 1 8,24 16,16 0 0 1 24,8 16,16 0 0 1 40,24 Z" />
    <path
       style="fill:none;stroke:#000;stroke-width:4;stroke-linecap:round;stroke-linejoin:miter;stroke-dasharray:none;stroke-opacity:1"
       d="M 24,8 V 3.0628721"
       id="path447"
       sodipodi:nodetypes="cc" />
    <path
       style="fill:none;stroke:#000;stroke-width:4;stroke-linecap:round;stroke-linejoin:miter;stroke-dasharray:none;stroke-opacity:1"
       d="m 40,24 h 4.937128"
       id="path1066"
       sodipodi:nodetypes="cc" />
    <path
       style="fill:none;stroke:#000;stroke-width:4;stroke-linecap:round;stroke-linejoin:miter;stroke-dasharray:none;stroke-opacity:1"
       d="m 24,40 v 4.937128"
       id="path1072"
       sodipodi:nodetypes="cc" />
    <path
       style="fill:none;stroke:#000;stroke-width:4;stroke-linecap:round;stroke-linejoin:miter;stroke-dasharray:none;stroke-opacity:1"
       d="M 8,24 H 3.0628721"
       id="path1078"
       sodipodi:nodetypes="cc" />
  </g>
</svg>
