<?xml version="1.0" encoding="UTF-8" standalone="no"?>
<!-- Created with Inkscape (http://www.inkscape.org/) -->

<svg
   width="48"
   height="48"
   viewBox="0 0 48 48.000002"
   version="1.1"
   id="svg5"
   inkscape:version="1.2 (dc2aedaf03, 2022-05-15)"
   xml:space="preserve"
   sodipodi:docname="save.svg"
   xmlns:inkscape="http://www.inkscape.org/namespaces/inkscape"
   xmlns:sodipodi="http://sodipodi.sourceforge.net/DTD/sodipodi-0.dtd"
   xmlns="http://www.w3.org/2000/svg"
   xmlns:svg="http://www.w3.org/2000/svg"><sodipodi:namedview
     id="namedview7"
     pagecolor="#505050"
     bordercolor="#eeeeee"
     borderopacity="1"
     inkscape:pageshadow="0"
     inkscape:pageopacity="0"
     inkscape:pagecheckerboard="0"
     inkscape:document-units="px"
     showgrid="false"
     units="px"
     inkscape:zoom="13.747552"
     inkscape:cx="21.640216"
     inkscape:cy="22.476728"
     inkscape:window-width="1916"
     inkscape:window-height="1050"
     inkscape:window-x="0"
     inkscape:window-y="26"
     inkscape:window-maximized="1"
     inkscape:current-layer="layer1"
     inkscape:showpageshadow="0"
     inkscape:deskcolor="#505050" /><defs
     id="defs2"><style
       id="style442">.a{fill:none;stroke:#000;stroke-linecap:round;stroke-linejoin:round;}</style></defs><g
     inkscape:label="Layer 1"
     inkscape:groupmode="layer"
     id="layer1"><path
       class="a"
       d="M 5.5,10.18 10,5.5 h 30.5 a 2,2 0 0 1 2,2 v 33 a 2,2 0 0 1 -2,2 h -33 a 2,2 0 0 1 -2,-2 z"
       id="path446"
       style="stroke:#ffffff;stroke-width:4;stroke-dasharray:none" /><path
       id="rect448"
       style="fill:none;stroke:#ffffff;stroke-width:4;stroke-linecap:round;stroke-linejoin:round"
       class="a"
       d="M 12.92,5.5 H 35.08 V 15.75 H 12.92 Z" /><path
       id="path1283"
       style="fill:none;stroke:#ffffff;stroke-width:4;stroke-linecap:round;stroke-linejoin:round;stroke-dashoffset:92;stop-color:#000000"
       d="M 30.126885,28.603403 A 6.1268849,6.1268849 0 0 1 24,34.730288 6.1268849,6.1268849 0 0 1 17.873115,28.603403 6.1268849,6.1268849 0 0 1 24,22.476518 a 6.1268849,6.1268849 0 0 1 6.126885,6.126885 z" /></g></svg>
